absl-py==0.11.0
asgiref==3.3.1
astunparse==1.6.3
cached-property==1.5.2
cachetools==4.2.1
certifi==2020.12.5
chardet==4.0.0
click==7.1.2
Django==3.1.6
django-appconf==1.0.4
django-compressor==2.4
django-filter==2.4.0
django-sass-processor==0.8.2
djangorestframework==3.12.2
dlib==19.21.1
face-recognition==1.3.0
face-recognition-models==0.3.0
flatbuffers==1.12
gast==0.3.3
google-auth==1.25.0
google-auth-oauthlib==0.4.2
google-pasta==0.2.0
grpcio==1.32.0
h5py==2.10.0
idna==2.10
importlib-metadata==3.4.0
Keras==2.4.3
Keras-Preprocessing==1.1.2
libsass==0.20.1
Markdown==3.3.3
mtcnn==0.1.0
numpy==1.19.5
oauthlib==3.1.0
opencv-python==4.5.1.48
opt-einsum==3.3.0
Pillow==8.1.0
protobuf==3.14.0
pyasn1==0.4.8
pyasn1-modules==0.2.8
pytz==2021.1
PyYAML==5.4.1
rcssmin==1.0.6
requests==2.25.1
requests-oauthlib==1.3.0
rjsmin==1.1.0
rsa==4.7
scipy==1.6.0
six==1.15.0
sqlparse==0.4.1
tensorboard==2.4.1
tensorboard-plugin-wit==1.8.0
tensorflow==2.4.1
tensorflow-estimator==2.4.0
termcolor==1.1.0
typing-extensions==3.7.4.3
urllib3==1.26.3
Werkzeug==1.0.1
wrapt==1.12.1
zipp==3.4.0
